{
    "target": "adhoc",
    "updateCommand": "uppgy",
    "checkList": [
        {
            "f":"/support/common/gameApiDefines.js",
            "k": "URL_HOST_WEREWOLF",
            "v": "http://staging.intviu.cn:8200"
        },
        {
            "f": "/ios/game_werewolf/werewolf_iOS/Config/Consts.swift",
            "k": "devSetting",
            "v": ".dev"
        },
        {
            "f": "/ios/game_werewolf/werewolf_iOS/Config/Consts.swift",
            "k": "urlDevHost",
            "v": "http://staging.intviu.cn:8200"
        }
    ] 
} 